<?xml version="1.0" encoding="UTF-8" standalone="no"?>
<svg
   xmlns:dc="http://purl.org/dc/elements/1.1/"
   xmlns:cc="http://creativecommons.org/ns#"
   xmlns:rdf="http://www.w3.org/1999/02/22-rdf-syntax-ns#"
   xmlns:svg="http://www.w3.org/2000/svg"
   xmlns="http://www.w3.org/2000/svg"
   xmlns:sodipodi="http://sodipodi.sourceforge.net/DTD/sodipodi-0.dtd"
   xmlns:inkscape="http://www.inkscape.org/namespaces/inkscape"
   width="16.0px"
   height="16.0px"
   viewBox="0 0 16.0 16.0"
   version="1.1"
   id="SVGRoot"
   sodipodi:docname="favicon.svg"
   inkscape:version="1.0.1 (3bc2e813f5, 2020-09-07)">
  <defs
     id="defs18" />
  <sodipodi:namedview
     id="base"
     pagecolor="#ffffff"
     bordercolor="#666666"
     borderopacity="1.0"
     inkscape:pageopacity="0.0"
     inkscape:pageshadow="2"
     inkscape:zoom="22.4"
     inkscape:cx="9.2703704"
     inkscape:cy="9.5037865"
     inkscape:document-units="px"
     inkscape:current-layer="layer1"
     inkscape:document-rotation="0"
     showgrid="true"
     inkscape:window-width="1920"
     inkscape:window-height="1015"
     inkscape:window-x="0"
     inkscape:window-y="0"
     inkscape:window-maximized="1"
     inkscape:snap-center="true"
     inkscape:snap-object-midpoints="true"
     inkscape:snap-others="true"
     inkscape:snap-grids="false">
    <inkscape:grid
       type="xygrid"
       id="grid27" />
  </sodipodi:namedview>
  <metadata
     id="metadata21">
    <rdf:RDF>
      <cc:Work
         rdf:about="">
        <dc:format>image/svg+xml</dc:format>
        <dc:type
           rdf:resource="http://purl.org/dc/dcmitype/StillImage" />
        <dc:title />
      </cc:Work>
    </rdf:RDF>
  </metadata>
  <g
     inkscape:label="Layer 1"
     inkscape:groupmode="layer"
     id="layer1">
    <rect
       style="fill:#000000;stroke-width:0.84681"
       id="rect34"
       width="16"
       height="16"
       x="0"
       y="2.220446e-16"
       ry="0" />
    <path
       style="fill:#ffffff;stroke-width:0.0315673"
       d="M 0.0209951,7.9882315 V 0.00171314 H 8.0075135 15.994032 V 7.9882315 15.97475 H 8.0075135 0.0209951 Z"
       id="path36" />
    <rect
       style="fill:#000000;stroke-width:1.25437"
       id="rect38"
       width="15"
       height="15"
       x="0.5"
       y="0.5" />
    <g
       aria-label="ج"
       id="text24"
       style="font-style:normal;font-weight:normal;font-size:15.3563px;line-height:1.25;font-family:sans-serif;fill:#ffffff;fill-opacity:1;stroke:none;stroke-width:1.15172"
       transform="translate(0.00751315,-0.01176933)">
      <path
         d="m 7.9850039,9.1622201 h 0.029993 q 0.044989,0.0075 0.9597687,0.9597689 v 0.02999 q 0,0.03749 -0.9597687,0.959768 h -0.029993 q -0.037491,0 -0.9597688,-0.959768 v -0.02999 Q 7.0327333,10.077 7.9850039,9.1622201 Z M 7.0252351,3.4560948 h 0.2999278 q 1.049747,0 2.1894725,1.3796676 2.3394366,2.1669779 2.3394366,2.7593352 v 0.2099495 q 0,0.5248735 -0.689834,0.7798121 -0.307426,0.029993 -0.479884,0.029993 H 6.2754158 q -0.6148519,0 -0.7198266,0.7798121 v 0.6898337 q 0,0.62235 0.8098049,0.989761 0.2399422,0.05999 0.5098771,0.05999 h 0.5998555 q 0.037491,0 1.3796676,1.379668 v 0.02999 H 6.8152857 q -1.5446279,0 -2.4594075,-1.709588 -0.2099494,-0.584859 -0.2099494,-1.1697178 0,-1.7620754 1.7695737,-2.3994219 0.2774331,-0.089978 0.6898338,-0.089978 H 9.9045414 Q 7.83504,5.0157191 7.6250906,5.0157191 7.4151412,4.9557335 7.2651773,4.9557335 H 7.1452062 q -0.5923573,0 -1.4396531,1.0197543 l -0.059986,0.029993 q -0.037491,0 -0.9897615,-0.9897615 Q 5.9679894,3.456095 7.0252351,3.4560948 Z"
         style="font-style:normal;font-variant:normal;font-weight:normal;font-stretch:normal;font-family:'g aseman';-inkscape-font-specification:'g aseman';stroke-width:1.15172"
         id="path31" />
    </g>
  </g>
</svg>
